%YAML 1.1
%TAG !u! tag:unity3d.com,2011:
--- !u!78 &1
TagManager:
  serializedVersion: 2
  tags:
  - Fluid
  - Enemy
  - Battery
  - Clue
  - Sibling
  - Duck
  - Spinner
  - ToyStore
  - Arcade
  - PlayArea
  - DollStore
  - Construction
  - border
  layers:
  - Default
  - TransparentFX
  - Ignore Raycast
  - PostProcessing
  - Water
  - UI
  - Bear
  - 
  - 
  - 
  - 
  - 
  - 
  - 
  - 
  - 
  - 
  - 
  - 
  - 
  - 
  - 
  - 
  - 
  - 
  - 
  - 
  - 
  - 
  - 
  - 
  - 
  m_SortingLayers:
  - name: Default
    uniqueID: 0
    locked: 0
