%YAML 1.1
%TAG !u! tag:unity3d.com,2011:
--- !u!1001 &6964108546214708306
PrefabInstance:
  m_ObjectHideFlags: 0
  serializedVersion: 2
  m_Modification:
    m_TransformParent: {fileID: 5926433004069550253}
    m_Modifications:
    - target: {fileID: 2830753640448631768, guid: 08ba8f68ca75c8241afc955150da9e01, type: 3}
      propertyPath: m_FontData.m_Font
      value: 
      objectReference: {fileID: 12800000, guid: 0c41767c023d5494ea510fab5636cb17, type: 3}
    - target: {fileID: 6473575586335592219, guid: 08ba8f68ca75c8241afc955150da9e01, type: 3}
      propertyPath: m_Pivot.x
      value: 0.5
      objectReference: {fileID: 0}
    - target: {fileID: 6473575586335592219, guid: 08ba8f68ca75c8241afc955150da9e01, type: 3}
      propertyPath: m_Pivot.y
      value: 0.5
      objectReference: {fileID: 0}
    - target: {fileID: 6473575586335592219, guid: 08ba8f68ca75c8241afc955150da9e01, type: 3}
      propertyPath: m_RootOrder
      value: 9
      objectReference: {fileID: 0}
    - target: {fileID: 6473575586335592219, guid: 08ba8f68ca75c8241afc955150da9e01, type: 3}
      propertyPath: m_AnchorMax.x
      value: 0.5
      objectReference: {fileID: 0}
    - target: {fileID: 6473575586335592219, guid: 08ba8f68ca75c8241afc955150da9e01, type: 3}
      propertyPath: m_AnchorMax.y
      value: 0.5
      objectReference: {fileID: 0}
    - target: {fileID: 6473575586335592219, guid: 08ba8f68ca75c8241afc955150da9e01, type: 3}
      propertyPath: m_AnchorMin.x
      value: 0.5
      objectReference: {fileID: 0}
    - target: {fileID: 6473575586335592219, guid: 08ba8f68ca75c8241afc955150da9e01, type: 3}
      propertyPath: m_AnchorMin.y
      value: 0.5
      objectReference: {fileID: 0}
    - target: {fileID: 6473575586335592219, guid: 08ba8f68ca75c8241afc955150da9e01, type: 3}
      propertyPath: m_SizeDelta.x
      value: 100
      objectReference: {fileID: 0}
    - target: {fileID: 6473575586335592219, guid: 08ba8f68ca75c8241afc955150da9e01, type: 3}
      propertyPath: m_SizeDelta.y
      value: 100
      objectReference: {fileID: 0}
    - target: {fileID: 6473575586335592219, guid: 08ba8f68ca75c8241afc955150da9e01, type: 3}
      propertyPath: m_LocalPosition.x
      value: 0
      objectReference: {fileID: 0}
    - target: {fileID: 6473575586335592219, guid: 08ba8f68ca75c8241afc955150da9e01, type: 3}
      propertyPath: m_LocalPosition.y
      value: 0
      objectReference: {fileID: 0}
    - target: {fileID: 6473575586335592219, guid: 08ba8f68ca75c8241afc955150da9e01, type: 3}
      propertyPath: m_LocalPosition.z
      value: 0
      objectReference: {fileID: 0}
    - target: {fileID: 6473575586335592219, guid: 08ba8f68ca75c8241afc955150da9e01, type: 3}
      propertyPath: m_LocalRotation.w
      value: 1
      objectReference: {fileID: 0}
    - target: {fileID: 6473575586335592219, guid: 08ba8f68ca75c8241afc955150da9e01, type: 3}
      propertyPath: m_LocalRotation.x
      value: 0
      objectReference: {fileID: 0}
    - target: {fileID: 6473575586335592219, guid: 08ba8f68ca75c8241afc955150da9e01, type: 3}
      propertyPath: m_LocalRotation.y
      value: 0
      objectReference: {fileID: 0}
    - target: {fileID: 6473575586335592219, guid: 08ba8f68ca75c8241afc955150da9e01, type: 3}
      propertyPath: m_LocalRotation.z
      value: 0
      objectReference: {fileID: 0}
    - target: {fileID: 6473575586335592219, guid: 08ba8f68ca75c8241afc955150da9e01, type: 3}
      propertyPath: m_AnchoredPosition.x
      value: 0
      objectReference: {fileID: 0}
    - target: {fileID: 6473575586335592219, guid: 08ba8f68ca75c8241afc955150da9e01, type: 3}
      propertyPath: m_AnchoredPosition.y
      value: 0
      objectReference: {fileID: 0}
    - target: {fileID: 6473575586335592219, guid: 08ba8f68ca75c8241afc955150da9e01, type: 3}
      propertyPath: m_LocalEulerAnglesHint.x
      value: 0
      objectReference: {fileID: 0}
    - target: {fileID: 6473575586335592219, guid: 08ba8f68ca75c8241afc955150da9e01, type: 3}
      propertyPath: m_LocalEulerAnglesHint.y
      value: 0
      objectReference: {fileID: 0}
    - target: {fileID: 6473575586335592219, guid: 08ba8f68ca75c8241afc955150da9e01, type: 3}
      propertyPath: m_LocalEulerAnglesHint.z
      value: 0
      objectReference: {fileID: 0}
    - target: {fileID: 7454407190748918113, guid: 08ba8f68ca75c8241afc955150da9e01, type: 3}
      propertyPath: m_Name
      value: DeathScreen
      objectReference: {fileID: 0}
    - target: {fileID: 7454407190748918113, guid: 08ba8f68ca75c8241afc955150da9e01, type: 3}
      propertyPath: m_IsActive
      value: 0
      objectReference: {fileID: 0}
    m_RemovedComponents: []
  m_SourcePrefab: {fileID: 100100000, guid: 08ba8f68ca75c8241afc955150da9e01, type: 3}
--- !u!1001 &7399453935720756116
PrefabInstance:
  m_ObjectHideFlags: 0
  serializedVersion: 2
  m_Modification:
    m_TransformParent: {fileID: 0}
    m_Modifications:
    - target: {fileID: 3787192262557094768, guid: 68f4cac867a0ca94bb5920f8c883a4fa, type: 3}
      propertyPath: m_AnchorMax.x
      value: 0
      objectReference: {fileID: 0}
    - target: {fileID: 3787192262557094768, guid: 68f4cac867a0ca94bb5920f8c883a4fa, type: 3}
      propertyPath: m_AnchorMax.y
      value: 0
      objectReference: {fileID: 0}
    - target: {fileID: 3787192263415331694, guid: 68f4cac867a0ca94bb5920f8c883a4fa, type: 3}
      propertyPath: m_AnchorMax.x
      value: 0
      objectReference: {fileID: 0}
    - target: {fileID: 3787192263415331694, guid: 68f4cac867a0ca94bb5920f8c883a4fa, type: 3}
      propertyPath: m_AnchorMax.y
      value: 0
      objectReference: {fileID: 0}
    - target: {fileID: 3787192263415331694, guid: 68f4cac867a0ca94bb5920f8c883a4fa, type: 3}
      propertyPath: m_AnchorMin.x
      value: 0
      objectReference: {fileID: 0}
    - target: {fileID: 3787192263637404469, guid: 68f4cac867a0ca94bb5920f8c883a4fa, type: 3}
      propertyPath: m_Name
      value: Canvas Variant
      objectReference: {fileID: 0}
    - target: {fileID: 3787192263637404473, guid: 68f4cac867a0ca94bb5920f8c883a4fa, type: 3}
      propertyPath: m_Pivot.x
      value: 0
      objectReference: {fileID: 0}
    - target: {fileID: 3787192263637404473, guid: 68f4cac867a0ca94bb5920f8c883a4fa, type: 3}
      propertyPath: m_Pivot.y
      value: 0
      objectReference: {fileID: 0}
    - target: {fileID: 3787192263637404473, guid: 68f4cac867a0ca94bb5920f8c883a4fa, type: 3}
      propertyPath: m_RootOrder
      value: 0
      objectReference: {fileID: 0}
    - target: {fileID: 3787192263637404473, guid: 68f4cac867a0ca94bb5920f8c883a4fa, type: 3}
      propertyPath: m_AnchorMax.x
      value: 0
      objectReference: {fileID: 0}
    - target: {fileID: 3787192263637404473, guid: 68f4cac867a0ca94bb5920f8c883a4fa, type: 3}
      propertyPath: m_AnchorMax.y
      value: 0
      objectReference: {fileID: 0}
    - target: {fileID: 3787192263637404473, guid: 68f4cac867a0ca94bb5920f8c883a4fa, type: 3}
      propertyPath: m_AnchorMin.x
      value: 0
      objectReference: {fileID: 0}
    - target: {fileID: 3787192263637404473, guid: 68f4cac867a0ca94bb5920f8c883a4fa, type: 3}
      propertyPath: m_AnchorMin.y
      value: 0
      objectReference: {fileID: 0}
    - target: {fileID: 3787192263637404473, guid: 68f4cac867a0ca94bb5920f8c883a4fa, type: 3}
      propertyPath: m_SizeDelta.x
      value: 0
      objectReference: {fileID: 0}
    - target: {fileID: 3787192263637404473, guid: 68f4cac867a0ca94bb5920f8c883a4fa, type: 3}
      propertyPath: m_SizeDelta.y
      value: 0
      objectReference: {fileID: 0}
    - target: {fileID: 3787192263637404473, guid: 68f4cac867a0ca94bb5920f8c883a4fa, type: 3}
      propertyPath: m_LocalPosition.x
      value: 0
      objectReference: {fileID: 0}
    - target: {fileID: 3787192263637404473, guid: 68f4cac867a0ca94bb5920f8c883a4fa, type: 3}
      propertyPath: m_LocalPosition.y
      value: 0
      objectReference: {fileID: 0}
    - target: {fileID: 3787192263637404473, guid: 68f4cac867a0ca94bb5920f8c883a4fa, type: 3}
      propertyPath: m_LocalPosition.z
      value: 0
      objectReference: {fileID: 0}
    - target: {fileID: 3787192263637404473, guid: 68f4cac867a0ca94bb5920f8c883a4fa, type: 3}
      propertyPath: m_LocalRotation.w
      value: 1
      objectReference: {fileID: 0}
    - target: {fileID: 3787192263637404473, guid: 68f4cac867a0ca94bb5920f8c883a4fa, type: 3}
      propertyPath: m_LocalRotation.x
      value: 0
      objectReference: {fileID: 0}
    - target: {fileID: 3787192263637404473, guid: 68f4cac867a0ca94bb5920f8c883a4fa, type: 3}
      propertyPath: m_LocalRotation.y
      value: 0
      objectReference: {fileID: 0}
    - target: {fileID: 3787192263637404473, guid: 68f4cac867a0ca94bb5920f8c883a4fa, type: 3}
      propertyPath: m_LocalRotation.z
      value: 0
      objectReference: {fileID: 0}
    - target: {fileID: 3787192263637404473, guid: 68f4cac867a0ca94bb5920f8c883a4fa, type: 3}
      propertyPath: m_AnchoredPosition.x
      value: 0
      objectReference: {fileID: 0}
    - target: {fileID: 3787192263637404473, guid: 68f4cac867a0ca94bb5920f8c883a4fa, type: 3}
      propertyPath: m_AnchoredPosition.y
      value: 0
      objectReference: {fileID: 0}
    - target: {fileID: 3787192263637404473, guid: 68f4cac867a0ca94bb5920f8c883a4fa, type: 3}
      propertyPath: m_LocalEulerAnglesHint.x
      value: 0
      objectReference: {fileID: 0}
    - target: {fileID: 3787192263637404473, guid: 68f4cac867a0ca94bb5920f8c883a4fa, type: 3}
      propertyPath: m_LocalEulerAnglesHint.y
      value: 0
      objectReference: {fileID: 0}
    - target: {fileID: 3787192263637404473, guid: 68f4cac867a0ca94bb5920f8c883a4fa, type: 3}
      propertyPath: m_LocalEulerAnglesHint.z
      value: 0
      objectReference: {fileID: 0}
    - target: {fileID: 3903629212488453250, guid: 68f4cac867a0ca94bb5920f8c883a4fa, type: 3}
      propertyPath: m_RootOrder
      value: 10
      objectReference: {fileID: 0}
    - target: {fileID: 8529482168390737807, guid: 68f4cac867a0ca94bb5920f8c883a4fa, type: 3}
      propertyPath: m_RootOrder
      value: 11
      objectReference: {fileID: 0}
    m_RemovedComponents: []
  m_SourcePrefab: {fileID: 100100000, guid: 68f4cac867a0ca94bb5920f8c883a4fa, type: 3}
--- !u!224 &5926433004069550253 stripped
RectTransform:
  m_CorrespondingSourceObject: {fileID: 3787192263637404473, guid: 68f4cac867a0ca94bb5920f8c883a4fa, type: 3}
  m_PrefabInstance: {fileID: 7399453935720756116}
  m_PrefabAsset: {fileID: 0}
