%YAML 1.1
%TAG !u! tag:unity3d.com,2011:
--- !u!1001 &2980502102864612327
PrefabInstance:
  m_ObjectHideFlags: 0
  serializedVersion: 2
  m_Modification:
    m_TransformParent: {fileID: 0}
    m_Modifications:
    - target: {fileID: 125808749511380475, guid: 51c3acbd0266db343a9ac1856da27054, type: 3}
      propertyPath: m_RootOrder
      value: 6
      objectReference: {fileID: 0}
    - target: {fileID: 306517729510884291, guid: 51c3acbd0266db343a9ac1856da27054, type: 3}
      propertyPath: m_Mesh
      value: 
      objectReference: {fileID: 0}
    - target: {fileID: 306517730024937792, guid: 51c3acbd0266db343a9ac1856da27054, type: 3}
      propertyPath: m_Mesh
      value: 
      objectReference: {fileID: 0}
    - target: {fileID: 306517730152124776, guid: 51c3acbd0266db343a9ac1856da27054, type: 3}
      propertyPath: m_Mesh
      value: 
      objectReference: {fileID: 0}
    - target: {fileID: 306517730448002027, guid: 51c3acbd0266db343a9ac1856da27054, type: 3}
      propertyPath: m_Mesh
      value: 
      objectReference: {fileID: 0}
    - target: {fileID: 504225010759282985, guid: 51c3acbd0266db343a9ac1856da27054, type: 3}
      propertyPath: m_Mesh
      value: 
      objectReference: {fileID: 0}
    - target: {fileID: 504225010849246122, guid: 51c3acbd0266db343a9ac1856da27054, type: 3}
      propertyPath: m_Mesh
      value: 
      objectReference: {fileID: 0}
    - target: {fileID: 504225011257844610, guid: 51c3acbd0266db343a9ac1856da27054, type: 3}
      propertyPath: m_Mesh
      value: 
      objectReference: {fileID: 0}
    - target: {fileID: 504225011431766273, guid: 51c3acbd0266db343a9ac1856da27054, type: 3}
      propertyPath: m_Mesh
      value: 
      objectReference: {fileID: 0}
    - target: {fileID: 539102708399372573, guid: 51c3acbd0266db343a9ac1856da27054, type: 3}
      propertyPath: m_Mesh
      value: 
      objectReference: {fileID: 0}
    - target: {fileID: 539102708808102197, guid: 51c3acbd0266db343a9ac1856da27054, type: 3}
      propertyPath: m_Mesh
      value: 
      objectReference: {fileID: 0}
    - target: {fileID: 558327753796579867, guid: 51c3acbd0266db343a9ac1856da27054, type: 3}
      propertyPath: m_Mesh
      value: 
      objectReference: {fileID: 0}
    - target: {fileID: 558327754025379992, guid: 51c3acbd0266db343a9ac1856da27054, type: 3}
      propertyPath: m_Mesh
      value: 
      objectReference: {fileID: 0}
    - target: {fileID: 558327754421035184, guid: 51c3acbd0266db343a9ac1856da27054, type: 3}
      propertyPath: m_Mesh
      value: 
      objectReference: {fileID: 0}
    - target: {fileID: 558327754465229363, guid: 51c3acbd0266db343a9ac1856da27054, type: 3}
      propertyPath: m_Mesh
      value: 
      objectReference: {fileID: 0}
    - target: {fileID: 579739678731151486, guid: 51c3acbd0266db343a9ac1856da27054, type: 3}
      propertyPath: m_Mesh
      value: 
      objectReference: {fileID: 0}
    - target: {fileID: 579739678838485757, guid: 51c3acbd0266db343a9ac1856da27054, type: 3}
      propertyPath: m_Mesh
      value: 
      objectReference: {fileID: 0}
    - target: {fileID: 579739679238175445, guid: 51c3acbd0266db343a9ac1856da27054, type: 3}
      propertyPath: m_Mesh
      value: 
      objectReference: {fileID: 0}
    - target: {fileID: 579739679395766358, guid: 51c3acbd0266db343a9ac1856da27054, type: 3}
      propertyPath: m_Mesh
      value: 
      objectReference: {fileID: 0}
    - target: {fileID: 940868191040051219, guid: 51c3acbd0266db343a9ac1856da27054, type: 3}
      propertyPath: m_Mesh
      value: 
      objectReference: {fileID: 0}
    - target: {fileID: 940868191466144400, guid: 51c3acbd0266db343a9ac1856da27054, type: 3}
      propertyPath: m_Mesh
      value: 
      objectReference: {fileID: 0}
    - target: {fileID: 940868191597398712, guid: 51c3acbd0266db343a9ac1856da27054, type: 3}
      propertyPath: m_Mesh
      value: 
      objectReference: {fileID: 0}
    - target: {fileID: 940868191973101627, guid: 51c3acbd0266db343a9ac1856da27054, type: 3}
      propertyPath: m_Mesh
      value: 
      objectReference: {fileID: 0}
    - target: {fileID: 1037736452985109034, guid: 51c3acbd0266db343a9ac1856da27054, type: 3}
      propertyPath: m_RootOrder
      value: 7
      objectReference: {fileID: 0}
    - target: {fileID: 1043289997901458969, guid: 51c3acbd0266db343a9ac1856da27054, type: 3}
      propertyPath: m_TagString
      value: Enemy
      objectReference: {fileID: 0}
    - target: {fileID: 1043289998715917173, guid: 51c3acbd0266db343a9ac1856da27054, type: 3}
      propertyPath: m_TagString
      value: Enemy
      objectReference: {fileID: 0}
    - target: {fileID: 1071466973468394879, guid: 51c3acbd0266db343a9ac1856da27054, type: 3}
      propertyPath: m_Mesh
      value: 
      objectReference: {fileID: 0}
    - target: {fileID: 1071466973873360215, guid: 51c3acbd0266db343a9ac1856da27054, type: 3}
      propertyPath: m_Mesh
      value: 
      objectReference: {fileID: 0}
    - target: {fileID: 1089333177173430909, guid: 51c3acbd0266db343a9ac1856da27054, type: 3}
      propertyPath: m_Mesh
      value: 
      objectReference: {fileID: 0}
    - target: {fileID: 1089333177838017109, guid: 51c3acbd0266db343a9ac1856da27054, type: 3}
      propertyPath: m_Mesh
      value: 
      objectReference: {fileID: 0}
    - target: {fileID: 1478734773300011197, guid: 51c3acbd0266db343a9ac1856da27054, type: 3}
      propertyPath: m_RootOrder
      value: 0
      objectReference: {fileID: 0}
    - target: {fileID: 1478734773300011197, guid: 51c3acbd0266db343a9ac1856da27054, type: 3}
      propertyPath: m_LocalPosition.x
      value: 0
      objectReference: {fileID: 0}
    - target: {fileID: 1478734773300011197, guid: 51c3acbd0266db343a9ac1856da27054, type: 3}
      propertyPath: m_LocalPosition.y
      value: 1.1510463
      objectReference: {fileID: 0}
    - target: {fileID: 1478734773300011197, guid: 51c3acbd0266db343a9ac1856da27054, type: 3}
      propertyPath: m_LocalPosition.z
      value: -478.48267
      objectReference: {fileID: 0}
    - target: {fileID: 1478734773300011197, guid: 51c3acbd0266db343a9ac1856da27054, type: 3}
      propertyPath: m_LocalRotation.w
      value: 1
      objectReference: {fileID: 0}
    - target: {fileID: 1478734773300011197, guid: 51c3acbd0266db343a9ac1856da27054, type: 3}
      propertyPath: m_LocalRotation.x
      value: 0
      objectReference: {fileID: 0}
    - target: {fileID: 1478734773300011197, guid: 51c3acbd0266db343a9ac1856da27054, type: 3}
      propertyPath: m_LocalRotation.y
      value: 0
      objectReference: {fileID: 0}
    - target: {fileID: 1478734773300011197, guid: 51c3acbd0266db343a9ac1856da27054, type: 3}
      propertyPath: m_LocalRotation.z
      value: 0
      objectReference: {fileID: 0}
    - target: {fileID: 1478734773300011197, guid: 51c3acbd0266db343a9ac1856da27054, type: 3}
      propertyPath: m_LocalEulerAnglesHint.x
      value: 0
      objectReference: {fileID: 0}
    - target: {fileID: 1478734773300011197, guid: 51c3acbd0266db343a9ac1856da27054, type: 3}
      propertyPath: m_LocalEulerAnglesHint.y
      value: 0
      objectReference: {fileID: 0}
    - target: {fileID: 1478734773300011197, guid: 51c3acbd0266db343a9ac1856da27054, type: 3}
      propertyPath: m_LocalEulerAnglesHint.z
      value: 0
      objectReference: {fileID: 0}
    - target: {fileID: 1551238391620202736, guid: 51c3acbd0266db343a9ac1856da27054, type: 3}
      propertyPath: m_Size.z
      value: 2.7608652
      objectReference: {fileID: 0}
    - target: {fileID: 1551238391620202736, guid: 51c3acbd0266db343a9ac1856da27054, type: 3}
      propertyPath: m_Center.x
      value: -0.000000041574474
      objectReference: {fileID: 0}
    - target: {fileID: 1551238391620202736, guid: 51c3acbd0266db343a9ac1856da27054, type: 3}
      propertyPath: m_Center.z
      value: 0.880432
      objectReference: {fileID: 0}
    - target: {fileID: 1724590091659515517, guid: 51c3acbd0266db343a9ac1856da27054, type: 3}
      propertyPath: m_Mesh
      value: 
      objectReference: {fileID: 0}
    - target: {fileID: 1724590092068806229, guid: 51c3acbd0266db343a9ac1856da27054, type: 3}
      propertyPath: m_Mesh
      value: 
      objectReference: {fileID: 0}
    - target: {fileID: 1938160415517167540, guid: 51c3acbd0266db343a9ac1856da27054, type: 3}
      propertyPath: m_Mesh
      value: 
      objectReference: {fileID: 0}
    - target: {fileID: 1938160415627941175, guid: 51c3acbd0266db343a9ac1856da27054, type: 3}
      propertyPath: m_Mesh
      value: 
      objectReference: {fileID: 0}
    - target: {fileID: 1938160416032513311, guid: 51c3acbd0266db343a9ac1856da27054, type: 3}
      propertyPath: m_Mesh
      value: 
      objectReference: {fileID: 0}
    - target: {fileID: 1938160416193677212, guid: 51c3acbd0266db343a9ac1856da27054, type: 3}
      propertyPath: m_Mesh
      value: 
      objectReference: {fileID: 0}
    - target: {fileID: 1975962021384356026, guid: 51c3acbd0266db343a9ac1856da27054, type: 3}
      propertyPath: m_Mesh
      value: 
      objectReference: {fileID: 0}
    - target: {fileID: 1975962021713336889, guid: 51c3acbd0266db343a9ac1856da27054, type: 3}
      propertyPath: m_Mesh
      value: 
      objectReference: {fileID: 0}
    - target: {fileID: 1975962021842096657, guid: 51c3acbd0266db343a9ac1856da27054, type: 3}
      propertyPath: m_Mesh
      value: 
      objectReference: {fileID: 0}
    - target: {fileID: 1975962022321997970, guid: 51c3acbd0266db343a9ac1856da27054, type: 3}
      propertyPath: m_Mesh
      value: 
      objectReference: {fileID: 0}
    - target: {fileID: 2008989672755920016, guid: 51c3acbd0266db343a9ac1856da27054, type: 3}
      propertyPath: m_Mesh
      value: 
      objectReference: {fileID: 0}
    - target: {fileID: 2008989672896083128, guid: 51c3acbd0266db343a9ac1856da27054, type: 3}
      propertyPath: m_Mesh
      value: 
      objectReference: {fileID: 0}
    - target: {fileID: 2153535446536410447, guid: 51c3acbd0266db343a9ac1856da27054, type: 3}
      propertyPath: m_Size.z
      value: 3.2678556
      objectReference: {fileID: 0}
    - target: {fileID: 2153535446536410447, guid: 51c3acbd0266db343a9ac1856da27054, type: 3}
      propertyPath: m_Center.x
      value: -0.11829894
      objectReference: {fileID: 0}
    - target: {fileID: 2153535446536410447, guid: 51c3acbd0266db343a9ac1856da27054, type: 3}
      propertyPath: m_Center.y
      value: 0.26984748
      objectReference: {fileID: 0}
    - target: {fileID: 2153535446536410447, guid: 51c3acbd0266db343a9ac1856da27054, type: 3}
      propertyPath: m_Center.z
      value: 1.1339285
      objectReference: {fileID: 0}
    - target: {fileID: 2179120553399123532, guid: 51c3acbd0266db343a9ac1856da27054, type: 3}
      propertyPath: m_Mesh
      value: 
      objectReference: {fileID: 0}
    - target: {fileID: 2179120554076157540, guid: 51c3acbd0266db343a9ac1856da27054, type: 3}
      propertyPath: m_Mesh
      value: 
      objectReference: {fileID: 0}
    - target: {fileID: 2294586506897886927, guid: 51c3acbd0266db343a9ac1856da27054, type: 3}
      propertyPath: m_Size.z
      value: 2.9918516
      objectReference: {fileID: 0}
    - target: {fileID: 2294586506897886927, guid: 51c3acbd0266db343a9ac1856da27054, type: 3}
      propertyPath: m_Center.x
      value: 0.00000006793757
      objectReference: {fileID: 0}
    - target: {fileID: 2294586506897886927, guid: 51c3acbd0266db343a9ac1856da27054, type: 3}
      propertyPath: m_Center.y
      value: 0.29432163
      objectReference: {fileID: 0}
    - target: {fileID: 2294586506897886927, guid: 51c3acbd0266db343a9ac1856da27054, type: 3}
      propertyPath: m_Center.z
      value: 0.99592483
      objectReference: {fileID: 0}
    - target: {fileID: 2318302654731726707, guid: 51c3acbd0266db343a9ac1856da27054, type: 3}
      propertyPath: m_Size.z
      value: 2.485014
      objectReference: {fileID: 0}
    - target: {fileID: 2318302654731726707, guid: 51c3acbd0266db343a9ac1856da27054, type: 3}
      propertyPath: m_Center.x
      value: -0.000000012328831
      objectReference: {fileID: 0}
    - target: {fileID: 2318302654731726707, guid: 51c3acbd0266db343a9ac1856da27054, type: 3}
      propertyPath: m_Center.z
      value: 0.7425064
      objectReference: {fileID: 0}
    - target: {fileID: 2694341499365127414, guid: 51c3acbd0266db343a9ac1856da27054, type: 3}
      propertyPath: m_Mesh
      value: 
      objectReference: {fileID: 0}
    - target: {fileID: 2694341500303391966, guid: 51c3acbd0266db343a9ac1856da27054, type: 3}
      propertyPath: m_Mesh
      value: 
      objectReference: {fileID: 0}
    - target: {fileID: 2779097301422513230, guid: 51c3acbd0266db343a9ac1856da27054, type: 3}
      propertyPath: m_Size.x
      value: 0.99999994
      objectReference: {fileID: 0}
    - target: {fileID: 2779097301422513230, guid: 51c3acbd0266db343a9ac1856da27054, type: 3}
      propertyPath: m_Size.z
      value: 2.396428
      objectReference: {fileID: 0}
    - target: {fileID: 2779097301422513230, guid: 51c3acbd0266db343a9ac1856da27054, type: 3}
      propertyPath: m_Center.x
      value: 0.0000000074162116
      objectReference: {fileID: 0}
    - target: {fileID: 2779097301422513230, guid: 51c3acbd0266db343a9ac1856da27054, type: 3}
      propertyPath: m_Center.y
      value: 0.038175203
      objectReference: {fileID: 0}
    - target: {fileID: 2779097301422513230, guid: 51c3acbd0266db343a9ac1856da27054, type: 3}
      propertyPath: m_Center.z
      value: 0.6982131
      objectReference: {fileID: 0}
    - target: {fileID: 2867564201111663713, guid: 51c3acbd0266db343a9ac1856da27054, type: 3}
      propertyPath: m_TagString
      value: Enemy
      objectReference: {fileID: 0}
    - target: {fileID: 2867564202323713873, guid: 51c3acbd0266db343a9ac1856da27054, type: 3}
      propertyPath: m_TagString
      value: Enemy
      objectReference: {fileID: 0}
    - target: {fileID: 3149244883640371164, guid: 51c3acbd0266db343a9ac1856da27054, type: 3}
      propertyPath: m_Mesh
      value: 
      objectReference: {fileID: 0}
    - target: {fileID: 3149244883902668127, guid: 51c3acbd0266db343a9ac1856da27054, type: 3}
      propertyPath: m_Mesh
      value: 
      objectReference: {fileID: 0}
    - target: {fileID: 3149244884306711927, guid: 51c3acbd0266db343a9ac1856da27054, type: 3}
      propertyPath: m_Mesh
      value: 
      objectReference: {fileID: 0}
    - target: {fileID: 3149244884317409268, guid: 51c3acbd0266db343a9ac1856da27054, type: 3}
      propertyPath: m_Mesh
      value: 
      objectReference: {fileID: 0}
    - target: {fileID: 3198291625084887087, guid: 51c3acbd0266db343a9ac1856da27054, type: 3}
      propertyPath: m_Enabled
      value: 0
      objectReference: {fileID: 0}
    - target: {fileID: 3252759483782272938, guid: 51c3acbd0266db343a9ac1856da27054, type: 3}
      propertyPath: m_TagString
      value: Enemy
      objectReference: {fileID: 0}
    - target: {fileID: 3257492228157150563, guid: 51c3acbd0266db343a9ac1856da27054, type: 3}
      propertyPath: m_Size.z
      value: 2.927845
      objectReference: {fileID: 0}
    - target: {fileID: 3257492228157150563, guid: 51c3acbd0266db343a9ac1856da27054, type: 3}
      propertyPath: m_Center.x
      value: -0.00000013736215
      objectReference: {fileID: 0}
    - target: {fileID: 3257492228157150563, guid: 51c3acbd0266db343a9ac1856da27054, type: 3}
      propertyPath: m_Center.z
      value: 0.963923
      objectReference: {fileID: 0}
    - target: {fileID: 3266510407447279701, guid: 51c3acbd0266db343a9ac1856da27054, type: 3}
      propertyPath: m_TagString
      value: Enemy
      objectReference: {fileID: 0}
    - target: {fileID: 3266510407609033430, guid: 51c3acbd0266db343a9ac1856da27054, type: 3}
      propertyPath: m_TagString
      value: Enemy
      objectReference: {fileID: 0}
    - target: {fileID: 3404337325767629010, guid: 51c3acbd0266db343a9ac1856da27054, type: 3}
      propertyPath: m_Mesh
      value: 
      objectReference: {fileID: 0}
    - target: {fileID: 3404337326109639249, guid: 51c3acbd0266db343a9ac1856da27054, type: 3}
      propertyPath: m_Mesh
      value: 
      objectReference: {fileID: 0}
    - target: {fileID: 3404337326241024633, guid: 51c3acbd0266db343a9ac1856da27054, type: 3}
      propertyPath: m_Mesh
      value: 
      objectReference: {fileID: 0}
    - target: {fileID: 3404337326700548346, guid: 51c3acbd0266db343a9ac1856da27054, type: 3}
      propertyPath: m_Mesh
      value: 
      objectReference: {fileID: 0}
    - target: {fileID: 3449614609290994510, guid: 51c3acbd0266db343a9ac1856da27054, type: 3}
      propertyPath: m_Mesh
      value: 
      objectReference: {fileID: 0}
    - target: {fileID: 3449614609691241318, guid: 51c3acbd0266db343a9ac1856da27054, type: 3}
      propertyPath: m_Mesh
      value: 
      objectReference: {fileID: 0}
    - target: {fileID: 3468012689804645739, guid: 51c3acbd0266db343a9ac1856da27054, type: 3}
      propertyPath: m_Size.z
      value: 3.0171354
      objectReference: {fileID: 0}
    - target: {fileID: 3468012689804645739, guid: 51c3acbd0266db343a9ac1856da27054, type: 3}
      propertyPath: m_Center.x
      value: -0.000000027878635
      objectReference: {fileID: 0}
    - target: {fileID: 3468012689804645739, guid: 51c3acbd0266db343a9ac1856da27054, type: 3}
      propertyPath: m_Center.y
      value: 0.15403461
      objectReference: {fileID: 0}
    - target: {fileID: 3468012689804645739, guid: 51c3acbd0266db343a9ac1856da27054, type: 3}
      propertyPath: m_Center.z
      value: 1.0085682
      objectReference: {fileID: 0}
    - target: {fileID: 3514813488069323080, guid: 51c3acbd0266db343a9ac1856da27054, type: 3}
      propertyPath: m_Mesh
      value: 
      objectReference: {fileID: 0}
    - target: {fileID: 3514813488599561163, guid: 51c3acbd0266db343a9ac1856da27054, type: 3}
      propertyPath: m_Mesh
      value: 
      objectReference: {fileID: 0}
    - target: {fileID: 3514813488735665123, guid: 51c3acbd0266db343a9ac1856da27054, type: 3}
      propertyPath: m_Mesh
      value: 
      objectReference: {fileID: 0}
    - target: {fileID: 3514813489014301024, guid: 51c3acbd0266db343a9ac1856da27054, type: 3}
      propertyPath: m_Mesh
      value: 
      objectReference: {fileID: 0}
    - target: {fileID: 3574271121717312290, guid: 51c3acbd0266db343a9ac1856da27054, type: 3}
      propertyPath: m_RootOrder
      value: 8
      objectReference: {fileID: 0}
    - target: {fileID: 3603769998800965884, guid: 51c3acbd0266db343a9ac1856da27054, type: 3}
      propertyPath: m_TagString
      value: Enemy
      objectReference: {fileID: 0}
    - target: {fileID: 3603769999108868735, guid: 51c3acbd0266db343a9ac1856da27054, type: 3}
      propertyPath: m_TagString
      value: Enemy
      objectReference: {fileID: 0}
    - target: {fileID: 3748875503070157457, guid: 51c3acbd0266db343a9ac1856da27054, type: 3}
      propertyPath: m_Mesh
      value: 
      objectReference: {fileID: 0}
    - target: {fileID: 3748875503206159033, guid: 51c3acbd0266db343a9ac1856da27054, type: 3}
      propertyPath: m_Mesh
      value: 
      objectReference: {fileID: 0}
    - target: {fileID: 3831156276283043001, guid: 51c3acbd0266db343a9ac1856da27054, type: 3}
      propertyPath: m_TagString
      value: Enemy
      objectReference: {fileID: 0}
    - target: {fileID: 3831156277059243831, guid: 51c3acbd0266db343a9ac1856da27054, type: 3}
      propertyPath: m_TagString
      value: Enemy
      objectReference: {fileID: 0}
    - target: {fileID: 3914026611776316031, guid: 51c3acbd0266db343a9ac1856da27054, type: 3}
      propertyPath: m_Size.x
      value: 0.9999999
      objectReference: {fileID: 0}
    - target: {fileID: 3914026611776316031, guid: 51c3acbd0266db343a9ac1856da27054, type: 3}
      propertyPath: m_Size.y
      value: 1.9093331
      objectReference: {fileID: 0}
    - target: {fileID: 3914026611776316031, guid: 51c3acbd0266db343a9ac1856da27054, type: 3}
      propertyPath: m_Size.z
      value: 2.366424
      objectReference: {fileID: 0}
    - target: {fileID: 3914026611776316031, guid: 51c3acbd0266db343a9ac1856da27054, type: 3}
      propertyPath: m_Center.x
      value: -0.000000008468084
      objectReference: {fileID: 0}
    - target: {fileID: 3914026611776316031, guid: 51c3acbd0266db343a9ac1856da27054, type: 3}
      propertyPath: m_Center.z
      value: 0.68321264
      objectReference: {fileID: 0}
    - target: {fileID: 3932309260055037851, guid: 51c3acbd0266db343a9ac1856da27054, type: 3}
      propertyPath: m_Mesh
      value: 
      objectReference: {fileID: 0}
    - target: {fileID: 3932309260463116211, guid: 51c3acbd0266db343a9ac1856da27054, type: 3}
      propertyPath: m_Mesh
      value: 
      objectReference: {fileID: 0}
    - target: {fileID: 4050343947279242186, guid: 51c3acbd0266db343a9ac1856da27054, type: 3}
      propertyPath: m_Mesh
      value: 
      objectReference: {fileID: 0}
    - target: {fileID: 4050343947688364361, guid: 51c3acbd0266db343a9ac1856da27054, type: 3}
      propertyPath: m_Mesh
      value: 
      objectReference: {fileID: 0}
    - target: {fileID: 4050343947828134241, guid: 51c3acbd0266db343a9ac1856da27054, type: 3}
      propertyPath: m_Mesh
      value: 
      objectReference: {fileID: 0}
    - target: {fileID: 4050343948220554210, guid: 51c3acbd0266db343a9ac1856da27054, type: 3}
      propertyPath: m_Mesh
      value: 
      objectReference: {fileID: 0}
    - target: {fileID: 4082619888288626265, guid: 51c3acbd0266db343a9ac1856da27054, type: 3}
      propertyPath: m_TagString
      value: Enemy
      objectReference: {fileID: 0}
    - target: {fileID: 4082619888748113114, guid: 51c3acbd0266db343a9ac1856da27054, type: 3}
      propertyPath: m_TagString
      value: Enemy
      objectReference: {fileID: 0}
    - target: {fileID: 4207851159372523970, guid: 51c3acbd0266db343a9ac1856da27054, type: 3}
      propertyPath: m_Name
      value: WholeMall 4
      objectReference: {fileID: 0}
    - target: {fileID: 4212480563810957615, guid: 51c3acbd0266db343a9ac1856da27054, type: 3}
      propertyPath: m_Mesh
      value: 
      objectReference: {fileID: 0}
    - target: {fileID: 4212480563901473708, guid: 51c3acbd0266db343a9ac1856da27054, type: 3}
      propertyPath: m_Mesh
      value: 
      objectReference: {fileID: 0}
    - target: {fileID: 4212480564310633348, guid: 51c3acbd0266db343a9ac1856da27054, type: 3}
      propertyPath: m_Mesh
      value: 
      objectReference: {fileID: 0}
    - target: {fileID: 4212480564484976903, guid: 51c3acbd0266db343a9ac1856da27054, type: 3}
      propertyPath: m_Mesh
      value: 
      objectReference: {fileID: 0}
    - target: {fileID: 4492355021946372362, guid: 51c3acbd0266db343a9ac1856da27054, type: 3}
      propertyPath: m_Size.z
      value: 2.4236941
      objectReference: {fileID: 0}
    - target: {fileID: 4492355021946372362, guid: 51c3acbd0266db343a9ac1856da27054, type: 3}
      propertyPath: m_Center.x
      value: -0.00000008204309
      objectReference: {fileID: 0}
    - target: {fileID: 4492355021946372362, guid: 51c3acbd0266db343a9ac1856da27054, type: 3}
      propertyPath: m_Center.y
      value: 0.087228395
      objectReference: {fileID: 0}
    - target: {fileID: 4492355021946372362, guid: 51c3acbd0266db343a9ac1856da27054, type: 3}
      propertyPath: m_Center.z
      value: 0.7118487
      objectReference: {fileID: 0}
    - target: {fileID: 4511131829819233665, guid: 51c3acbd0266db343a9ac1856da27054, type: 3}
      propertyPath: m_Mesh
      value: 
      objectReference: {fileID: 0}
    - target: {fileID: 4511131829980401410, guid: 51c3acbd0266db343a9ac1856da27054, type: 3}
      propertyPath: m_Mesh
      value: 
      objectReference: {fileID: 0}
    - target: {fileID: 4511131830377629482, guid: 51c3acbd0266db343a9ac1856da27054, type: 3}
      propertyPath: m_Mesh
      value: 
      objectReference: {fileID: 0}
    - target: {fileID: 4511131830488407465, guid: 51c3acbd0266db343a9ac1856da27054, type: 3}
      propertyPath: m_Mesh
      value: 
      objectReference: {fileID: 0}
    - target: {fileID: 4564742171034927680, guid: 51c3acbd0266db343a9ac1856da27054, type: 3}
      propertyPath: m_Mesh
      value: 
      objectReference: {fileID: 0}
    - target: {fileID: 4564742171179980995, guid: 51c3acbd0266db343a9ac1856da27054, type: 3}
      propertyPath: m_Mesh
      value: 
      objectReference: {fileID: 0}
    - target: {fileID: 4564742171575505131, guid: 51c3acbd0266db343a9ac1856da27054, type: 3}
      propertyPath: m_Mesh
      value: 
      objectReference: {fileID: 0}
    - target: {fileID: 4564742171703708264, guid: 51c3acbd0266db343a9ac1856da27054, type: 3}
      propertyPath: m_Mesh
      value: 
      objectReference: {fileID: 0}
    - target: {fileID: 4588580537443008206, guid: 51c3acbd0266db343a9ac1856da27054, type: 3}
      propertyPath: m_RootOrder
      value: 3
      objectReference: {fileID: 0}
    - target: {fileID: 4673293921684020484, guid: 51c3acbd0266db343a9ac1856da27054, type: 3}
      propertyPath: m_Mesh
      value: 
      objectReference: {fileID: 0}
    - target: {fileID: 4673293922059028359, guid: 51c3acbd0266db343a9ac1856da27054, type: 3}
      propertyPath: m_Mesh
      value: 
      objectReference: {fileID: 0}
    - target: {fileID: 4673293922192019375, guid: 51c3acbd0266db343a9ac1856da27054, type: 3}
      propertyPath: m_Mesh
      value: 
      objectReference: {fileID: 0}
    - target: {fileID: 4673293922617431340, guid: 51c3acbd0266db343a9ac1856da27054, type: 3}
      propertyPath: m_Mesh
      value: 
      objectReference: {fileID: 0}
    - target: {fileID: 4781138750556119121, guid: 51c3acbd0266db343a9ac1856da27054, type: 3}
      propertyPath: m_Size.z
      value: 2.7709827
      objectReference: {fileID: 0}
    - target: {fileID: 4781138750556119121, guid: 51c3acbd0266db343a9ac1856da27054, type: 3}
      propertyPath: m_Center.x
      value: -0.000000039677143
      objectReference: {fileID: 0}
    - target: {fileID: 4781138750556119121, guid: 51c3acbd0266db343a9ac1856da27054, type: 3}
      propertyPath: m_Center.z
      value: 0.8854911
      objectReference: {fileID: 0}
    - target: {fileID: 5231712557368028403, guid: 51c3acbd0266db343a9ac1856da27054, type: 3}
      propertyPath: m_TagString
      value: Enemy
      objectReference: {fileID: 0}
    - target: {fileID: 5231712557747336816, guid: 51c3acbd0266db343a9ac1856da27054, type: 3}
      propertyPath: m_TagString
      value: Enemy
      objectReference: {fileID: 0}
    - target: {fileID: 5254047884874619279, guid: 51c3acbd0266db343a9ac1856da27054, type: 3}
      propertyPath: m_TagString
      value: Enemy
      objectReference: {fileID: 0}
    - target: {fileID: 5348361076499614005, guid: 51c3acbd0266db343a9ac1856da27054, type: 3}
      propertyPath: m_Size.x
      value: 0.9999999
      objectReference: {fileID: 0}
    - target: {fileID: 5348361076499614005, guid: 51c3acbd0266db343a9ac1856da27054, type: 3}
      propertyPath: m_Size.y
      value: 1.9727551
      objectReference: {fileID: 0}
    - target: {fileID: 5348361076499614005, guid: 51c3acbd0266db343a9ac1856da27054, type: 3}
      propertyPath: m_Size.z
      value: 2.4560766
      objectReference: {fileID: 0}
    - target: {fileID: 5348361076499614005, guid: 51c3acbd0266db343a9ac1856da27054, type: 3}
      propertyPath: m_Center.x
      value: -0.000000012494391
      objectReference: {fileID: 0}
    - target: {fileID: 5348361076499614005, guid: 51c3acbd0266db343a9ac1856da27054, type: 3}
      propertyPath: m_Center.y
      value: 0.0156147005
      objectReference: {fileID: 0}
    - target: {fileID: 5348361076499614005, guid: 51c3acbd0266db343a9ac1856da27054, type: 3}
      propertyPath: m_Center.z
      value: 0.7280389
      objectReference: {fileID: 0}
    - target: {fileID: 5359749111847047231, guid: 51c3acbd0266db343a9ac1856da27054, type: 3}
      propertyPath: m_Mesh
      value: 
      objectReference: {fileID: 0}
    - target: {fileID: 5359749112092560060, guid: 51c3acbd0266db343a9ac1856da27054, type: 3}
      propertyPath: m_Mesh
      value: 
      objectReference: {fileID: 0}
    - target: {fileID: 5359749112488215188, guid: 51c3acbd0266db343a9ac1856da27054, type: 3}
      propertyPath: m_Mesh
      value: 
      objectReference: {fileID: 0}
    - target: {fileID: 5359749112515696663, guid: 51c3acbd0266db343a9ac1856da27054, type: 3}
      propertyPath: m_Mesh
      value: 
      objectReference: {fileID: 0}
    - target: {fileID: 5368426668386544547, guid: 51c3acbd0266db343a9ac1856da27054, type: 3}
      propertyPath: m_Mesh
      value: 
      objectReference: {fileID: 0}
    - target: {fileID: 5368426668514124683, guid: 51c3acbd0266db343a9ac1856da27054, type: 3}
      propertyPath: m_Mesh
      value: 
      objectReference: {fileID: 0}
    - target: {fileID: 5623453143840747054, guid: 51c3acbd0266db343a9ac1856da27054, type: 3}
      propertyPath: m_Mesh
      value: 
      objectReference: {fileID: 0}
    - target: {fileID: 5623453144513193478, guid: 51c3acbd0266db343a9ac1856da27054, type: 3}
      propertyPath: m_Mesh
      value: 
      objectReference: {fileID: 0}
    - target: {fileID: 5888587586695031264, guid: 51c3acbd0266db343a9ac1856da27054, type: 3}
      propertyPath: m_Mesh
      value: 
      objectReference: {fileID: 0}
    - target: {fileID: 5888587587037082467, guid: 51c3acbd0266db343a9ac1856da27054, type: 3}
      propertyPath: m_Mesh
      value: 
      objectReference: {fileID: 0}
    - target: {fileID: 5888587587176889163, guid: 51c3acbd0266db343a9ac1856da27054, type: 3}
      propertyPath: m_Mesh
      value: 
      objectReference: {fileID: 0}
    - target: {fileID: 5888587587636306376, guid: 51c3acbd0266db343a9ac1856da27054, type: 3}
      propertyPath: m_Mesh
      value: 
      objectReference: {fileID: 0}
    - target: {fileID: 5893363474323694591, guid: 51c3acbd0266db343a9ac1856da27054, type: 3}
      propertyPath: m_Mesh
      value: 
      objectReference: {fileID: 0}
    - target: {fileID: 5893363474326051089, guid: 51c3acbd0266db343a9ac1856da27054, type: 3}
      propertyPath: m_Mesh
      value: 
      objectReference: {fileID: 0}
    - target: {fileID: 5893363474403480227, guid: 51c3acbd0266db343a9ac1856da27054, type: 3}
      propertyPath: m_Mesh
      value: 
      objectReference: {fileID: 0}
    - target: {fileID: 5893363474534284448, guid: 51c3acbd0266db343a9ac1856da27054, type: 3}
      propertyPath: m_Mesh
      value: 
      objectReference: {fileID: 0}
    - target: {fileID: 5893363474544415786, guid: 51c3acbd0266db343a9ac1856da27054, type: 3}
      propertyPath: m_Mesh
      value: 
      objectReference: {fileID: 0}
    - target: {fileID: 5893363474577947904, guid: 51c3acbd0266db343a9ac1856da27054, type: 3}
      propertyPath: m_Mesh
      value: 
      objectReference: {fileID: 0}
    - target: {fileID: 5893363474579965694, guid: 51c3acbd0266db343a9ac1856da27054, type: 3}
      propertyPath: m_Mesh
      value: 
      objectReference: {fileID: 0}
    - target: {fileID: 5893363474589875310, guid: 51c3acbd0266db343a9ac1856da27054, type: 3}
      propertyPath: m_Mesh
      value: 
      objectReference: {fileID: 0}
    - target: {fileID: 5893363474603444070, guid: 51c3acbd0266db343a9ac1856da27054, type: 3}
      propertyPath: m_Mesh
      value: 
      objectReference: {fileID: 0}
    - target: {fileID: 5893363474659186761, guid: 51c3acbd0266db343a9ac1856da27054, type: 3}
      propertyPath: m_Mesh
      value: 
      objectReference: {fileID: 0}
    - target: {fileID: 5893363474682795406, guid: 51c3acbd0266db343a9ac1856da27054, type: 3}
      propertyPath: m_Mesh
      value: 
      objectReference: {fileID: 0}
    - target: {fileID: 5893363474748601217, guid: 51c3acbd0266db343a9ac1856da27054, type: 3}
      propertyPath: m_Mesh
      value: 
      objectReference: {fileID: 0}
    - target: {fileID: 5893363474759313808, guid: 51c3acbd0266db343a9ac1856da27054, type: 3}
      propertyPath: m_Mesh
      value: 
      objectReference: {fileID: 0}
    - target: {fileID: 5893363474818899366, guid: 51c3acbd0266db343a9ac1856da27054, type: 3}
      propertyPath: m_Mesh
      value: 
      objectReference: {fileID: 0}
    - target: {fileID: 5893363474885229481, guid: 51c3acbd0266db343a9ac1856da27054, type: 3}
      propertyPath: m_Mesh
      value: 
      objectReference: {fileID: 0}
    - target: {fileID: 5893363474891219384, guid: 51c3acbd0266db343a9ac1856da27054, type: 3}
      propertyPath: m_Mesh
      value: 
      objectReference: {fileID: 0}
    - target: {fileID: 5893363474940435458, guid: 51c3acbd0266db343a9ac1856da27054, type: 3}
      propertyPath: m_Mesh
      value: 
      objectReference: {fileID: 0}
    - target: {fileID: 5893363474974094632, guid: 51c3acbd0266db343a9ac1856da27054, type: 3}
      propertyPath: m_Mesh
      value: 
      objectReference: {fileID: 0}
    - target: {fileID: 5893363474988568278, guid: 51c3acbd0266db343a9ac1856da27054, type: 3}
      propertyPath: m_Mesh
      value: 
      objectReference: {fileID: 0}
    - target: {fileID: 5893363474995459142, guid: 51c3acbd0266db343a9ac1856da27054, type: 3}
      propertyPath: m_Mesh
      value: 
      objectReference: {fileID: 0}
    - target: {fileID: 5893363475013259086, guid: 51c3acbd0266db343a9ac1856da27054, type: 3}
      propertyPath: m_Mesh
      value: 
      objectReference: {fileID: 0}
    - target: {fileID: 5893363475060609121, guid: 51c3acbd0266db343a9ac1856da27054, type: 3}
      propertyPath: m_Mesh
      value: 
      objectReference: {fileID: 0}
    - target: {fileID: 5893363475081173643, guid: 51c3acbd0266db343a9ac1856da27054, type: 3}
      propertyPath: m_Mesh
      value: 
      objectReference: {fileID: 0}
    - target: {fileID: 5893363475199947912, guid: 51c3acbd0266db343a9ac1856da27054, type: 3}
      propertyPath: m_Mesh
      value: 
      objectReference: {fileID: 0}
    - target: {fileID: 5893363475259461945, guid: 51c3acbd0266db343a9ac1856da27054, type: 3}
      propertyPath: m_Mesh
      value: 
      objectReference: {fileID: 0}
    - target: {fileID: 5893363475261828055, guid: 51c3acbd0266db343a9ac1856da27054, type: 3}
      propertyPath: m_Mesh
      value: 
      objectReference: {fileID: 0}
    - target: {fileID: 5893363475359036761, guid: 51c3acbd0266db343a9ac1856da27054, type: 3}
      propertyPath: m_Mesh
      value: 
      objectReference: {fileID: 0}
    - target: {fileID: 5893363475398785350, guid: 51c3acbd0266db343a9ac1856da27054, type: 3}
      propertyPath: m_Mesh
      value: 
      objectReference: {fileID: 0}
    - target: {fileID: 5893363475426910430, guid: 51c3acbd0266db343a9ac1856da27054, type: 3}
      propertyPath: m_Mesh
      value: 
      objectReference: {fileID: 0}
    - target: {fileID: 5893363475499260261, guid: 51c3acbd0266db343a9ac1856da27054, type: 3}
      propertyPath: m_Mesh
      value: 
      objectReference: {fileID: 0}
    - target: {fileID: 5893363475508885422, guid: 51c3acbd0266db343a9ac1856da27054, type: 3}
      propertyPath: m_Mesh
      value: 
      objectReference: {fileID: 0}
    - target: {fileID: 5893363475617590851, guid: 51c3acbd0266db343a9ac1856da27054, type: 3}
      propertyPath: m_Mesh
      value: 
      objectReference: {fileID: 0}
    - target: {fileID: 5893363475771266423, guid: 51c3acbd0266db343a9ac1856da27054, type: 3}
      propertyPath: m_Mesh
      value: 
      objectReference: {fileID: 0}
    - target: {fileID: 5893363475779568319, guid: 51c3acbd0266db343a9ac1856da27054, type: 3}
      propertyPath: m_Mesh
      value: 
      objectReference: {fileID: 0}
    - target: {fileID: 5893363475824827794, guid: 51c3acbd0266db343a9ac1856da27054, type: 3}
      propertyPath: m_Mesh
      value: 
      objectReference: {fileID: 0}
    - target: {fileID: 5893363475834414354, guid: 51c3acbd0266db343a9ac1856da27054, type: 3}
      propertyPath: m_Mesh
      value: 
      objectReference: {fileID: 0}
    - target: {fileID: 5893363475850784274, guid: 51c3acbd0266db343a9ac1856da27054, type: 3}
      propertyPath: m_Mesh
      value: 
      objectReference: {fileID: 0}
    - target: {fileID: 5893363475911466335, guid: 51c3acbd0266db343a9ac1856da27054, type: 3}
      propertyPath: m_Mesh
      value: 
      objectReference: {fileID: 0}
    - target: {fileID: 5893363475919866519, guid: 51c3acbd0266db343a9ac1856da27054, type: 3}
      propertyPath: m_Mesh
      value: 
      objectReference: {fileID: 0}
    - target: {fileID: 5893363475956209082, guid: 51c3acbd0266db343a9ac1856da27054, type: 3}
      propertyPath: m_Mesh
      value: 
      objectReference: {fileID: 0}
    - target: {fileID: 5893363475965701434, guid: 51c3acbd0266db343a9ac1856da27054, type: 3}
      propertyPath: m_Mesh
      value: 
      objectReference: {fileID: 0}
    - target: {fileID: 5893363475982689850, guid: 51c3acbd0266db343a9ac1856da27054, type: 3}
      propertyPath: m_Mesh
      value: 
      objectReference: {fileID: 0}
    - target: {fileID: 5893363476014818923, guid: 51c3acbd0266db343a9ac1856da27054, type: 3}
      propertyPath: m_Mesh
      value: 
      objectReference: {fileID: 0}
    - target: {fileID: 5893363476164268365, guid: 51c3acbd0266db343a9ac1856da27054, type: 3}
      propertyPath: m_Mesh
      value: 
      objectReference: {fileID: 0}
    - target: {fileID: 5893363476173864838, guid: 51c3acbd0266db343a9ac1856da27054, type: 3}
      propertyPath: m_Mesh
      value: 
      objectReference: {fileID: 0}
    - target: {fileID: 5893363476304510321, guid: 51c3acbd0266db343a9ac1856da27054, type: 3}
      propertyPath: m_Mesh
      value: 
      objectReference: {fileID: 0}
    - target: {fileID: 5893363476332196206, guid: 51c3acbd0266db343a9ac1856da27054, type: 3}
      propertyPath: m_Mesh
      value: 
      objectReference: {fileID: 0}
    - target: {fileID: 5893363476372941046, guid: 51c3acbd0266db343a9ac1856da27054, type: 3}
      propertyPath: m_Mesh
      value: 
      objectReference: {fileID: 0}
    - target: {fileID: 5993313837080458474, guid: 51c3acbd0266db343a9ac1856da27054, type: 3}
      propertyPath: m_Mesh
      value: 
      objectReference: {fileID: 0}
    - target: {fileID: 5993313837124218473, guid: 51c3acbd0266db343a9ac1856da27054, type: 3}
      propertyPath: m_Mesh
      value: 
      objectReference: {fileID: 0}
    - target: {fileID: 5993313837528753729, guid: 51c3acbd0266db343a9ac1856da27054, type: 3}
      propertyPath: m_Mesh
      value: 
      objectReference: {fileID: 0}
    - target: {fileID: 5993313837757004994, guid: 51c3acbd0266db343a9ac1856da27054, type: 3}
      propertyPath: m_Mesh
      value: 
      objectReference: {fileID: 0}
    - target: {fileID: 6159228158769748537, guid: 51c3acbd0266db343a9ac1856da27054, type: 3}
      propertyPath: m_Mesh
      value: 
      objectReference: {fileID: 0}
    - target: {fileID: 6159228158909387281, guid: 51c3acbd0266db343a9ac1856da27054, type: 3}
      propertyPath: m_Mesh
      value: 
      objectReference: {fileID: 0}
    - target: {fileID: 6258964828219354594, guid: 51c3acbd0266db343a9ac1856da27054, type: 3}
      propertyPath: m_RootOrder
      value: 4
      objectReference: {fileID: 0}
    - target: {fileID: 6322474323058045222, guid: 51c3acbd0266db343a9ac1856da27054, type: 3}
      propertyPath: m_TagString
      value: Enemy
      objectReference: {fileID: 0}
    - target: {fileID: 6322539763230348193, guid: 51c3acbd0266db343a9ac1856da27054, type: 3}
      propertyPath: m_RootOrder
      value: 5
      objectReference: {fileID: 0}
    - target: {fileID: 6550452189844353329, guid: 51c3acbd0266db343a9ac1856da27054, type: 3}
      propertyPath: m_Mesh
      value: 
      objectReference: {fileID: 0}
    - target: {fileID: 6550452190244731161, guid: 51c3acbd0266db343a9ac1856da27054, type: 3}
      propertyPath: m_Mesh
      value: 
      objectReference: {fileID: 0}
    - target: {fileID: 6567403988739106544, guid: 51c3acbd0266db343a9ac1856da27054, type: 3}
      propertyPath: m_Mesh
      value: 
      objectReference: {fileID: 0}
    - target: {fileID: 6567403989139877592, guid: 51c3acbd0266db343a9ac1856da27054, type: 3}
      propertyPath: m_Mesh
      value: 
      objectReference: {fileID: 0}
    - target: {fileID: 6707751512425731971, guid: 51c3acbd0266db343a9ac1856da27054, type: 3}
      propertyPath: m_TagString
      value: Enemy
      objectReference: {fileID: 0}
    - target: {fileID: 6740603321705052728, guid: 51c3acbd0266db343a9ac1856da27054, type: 3}
      propertyPath: m_Mesh
      value: 
      objectReference: {fileID: 0}
    - target: {fileID: 6740603322650161680, guid: 51c3acbd0266db343a9ac1856da27054, type: 3}
      propertyPath: m_Mesh
      value: 
      objectReference: {fileID: 0}
    - target: {fileID: 6902722588844362334, guid: 51c3acbd0266db343a9ac1856da27054, type: 3}
      propertyPath: m_Mesh
      value: 
      objectReference: {fileID: 0}
    - target: {fileID: 6902722589249978998, guid: 51c3acbd0266db343a9ac1856da27054, type: 3}
      propertyPath: m_Mesh
      value: 
      objectReference: {fileID: 0}
    - target: {fileID: 7061117678520150577, guid: 51c3acbd0266db343a9ac1856da27054, type: 3}
      propertyPath: m_Mesh
      value: 
      objectReference: {fileID: 0}
    - target: {fileID: 7061117679452676633, guid: 51c3acbd0266db343a9ac1856da27054, type: 3}
      propertyPath: m_Mesh
      value: 
      objectReference: {fileID: 0}
    - target: {fileID: 7062010886056771946, guid: 51c3acbd0266db343a9ac1856da27054, type: 3}
      propertyPath: m_Mesh
      value: 
      objectReference: {fileID: 0}
    - target: {fileID: 7062010886457018690, guid: 51c3acbd0266db343a9ac1856da27054, type: 3}
      propertyPath: m_Mesh
      value: 
      objectReference: {fileID: 0}
    - target: {fileID: 7073531447189663029, guid: 51c3acbd0266db343a9ac1856da27054, type: 3}
      propertyPath: m_TagString
      value: Enemy
      objectReference: {fileID: 0}
    - target: {fileID: 7073531447743523984, guid: 51c3acbd0266db343a9ac1856da27054, type: 3}
      propertyPath: m_TagString
      value: Enemy
      objectReference: {fileID: 0}
    - target: {fileID: 7117268855944776300, guid: 51c3acbd0266db343a9ac1856da27054, type: 3}
      propertyPath: m_Mesh
      value: 
      objectReference: {fileID: 0}
    - target: {fileID: 7117268856156967151, guid: 51c3acbd0266db343a9ac1856da27054, type: 3}
      propertyPath: m_Mesh
      value: 
      objectReference: {fileID: 0}
    - target: {fileID: 7117268856560851143, guid: 51c3acbd0266db343a9ac1856da27054, type: 3}
      propertyPath: m_Mesh
      value: 
      objectReference: {fileID: 0}
    - target: {fileID: 7117268856621974084, guid: 51c3acbd0266db343a9ac1856da27054, type: 3}
      propertyPath: m_Mesh
      value: 
      objectReference: {fileID: 0}
    - target: {fileID: 7152143538394437851, guid: 51c3acbd0266db343a9ac1856da27054, type: 3}
      propertyPath: m_Mesh
      value: 
      objectReference: {fileID: 0}
    - target: {fileID: 7152143539071504627, guid: 51c3acbd0266db343a9ac1856da27054, type: 3}
      propertyPath: m_Mesh
      value: 
      objectReference: {fileID: 0}
    - target: {fileID: 7218692691836500685, guid: 51c3acbd0266db343a9ac1856da27054, type: 3}
      propertyPath: m_RootOrder
      value: 1
      objectReference: {fileID: 0}
    - target: {fileID: 7327330069032470466, guid: 51c3acbd0266db343a9ac1856da27054, type: 3}
      propertyPath: m_Size.z
      value: 2.2253916
      objectReference: {fileID: 0}
    - target: {fileID: 7327330069032470466, guid: 51c3acbd0266db343a9ac1856da27054, type: 3}
      propertyPath: m_Center.x
      value: -0.000000042906795
      objectReference: {fileID: 0}
    - target: {fileID: 7327330069032470466, guid: 51c3acbd0266db343a9ac1856da27054, type: 3}
      propertyPath: m_Center.z
      value: 0.6126959
      objectReference: {fileID: 0}
    - target: {fileID: 7543665701823343458, guid: 51c3acbd0266db343a9ac1856da27054, type: 3}
      propertyPath: m_Mesh
      value: 
      objectReference: {fileID: 0}
    - target: {fileID: 7543665701951054666, guid: 51c3acbd0266db343a9ac1856da27054, type: 3}
      propertyPath: m_Mesh
      value: 
      objectReference: {fileID: 0}
    - target: {fileID: 7683369244134734735, guid: 51c3acbd0266db343a9ac1856da27054, type: 3}
      propertyPath: m_Mesh
      value: 
      objectReference: {fileID: 0}
    - target: {fileID: 7683369244312609036, guid: 51c3acbd0266db343a9ac1856da27054, type: 3}
      propertyPath: m_Mesh
      value: 
      objectReference: {fileID: 0}
    - target: {fileID: 7683369244708792612, guid: 51c3acbd0266db343a9ac1856da27054, type: 3}
      propertyPath: m_Mesh
      value: 
      objectReference: {fileID: 0}
    - target: {fileID: 7683369244802855847, guid: 51c3acbd0266db343a9ac1856da27054, type: 3}
      propertyPath: m_Mesh
      value: 
      objectReference: {fileID: 0}
    - target: {fileID: 7737259851242796558, guid: 51c3acbd0266db343a9ac1856da27054, type: 3}
      propertyPath: m_Mesh
      value: 
      objectReference: {fileID: 0}
    - target: {fileID: 7737259851500366989, guid: 51c3acbd0266db343a9ac1856da27054, type: 3}
      propertyPath: m_Mesh
      value: 
      objectReference: {fileID: 0}
    - target: {fileID: 7737259851910177957, guid: 51c3acbd0266db343a9ac1856da27054, type: 3}
      propertyPath: m_Mesh
      value: 
      objectReference: {fileID: 0}
    - target: {fileID: 7737259851916164646, guid: 51c3acbd0266db343a9ac1856da27054, type: 3}
      propertyPath: m_Mesh
      value: 
      objectReference: {fileID: 0}
    - target: {fileID: 7877296324781498119, guid: 51c3acbd0266db343a9ac1856da27054, type: 3}
      propertyPath: m_RootOrder
      value: 2
      objectReference: {fileID: 0}
    - target: {fileID: 7905364860556247436, guid: 51c3acbd0266db343a9ac1856da27054, type: 3}
      propertyPath: m_Mesh
      value: 
      objectReference: {fileID: 0}
    - target: {fileID: 7905364861224405412, guid: 51c3acbd0266db343a9ac1856da27054, type: 3}
      propertyPath: m_Mesh
      value: 
      objectReference: {fileID: 0}
    - target: {fileID: 8237119810322064652, guid: 51c3acbd0266db343a9ac1856da27054, type: 3}
      propertyPath: m_Mesh
      value: 
      objectReference: {fileID: 0}
    - target: {fileID: 8237119810500149135, guid: 51c3acbd0266db343a9ac1856da27054, type: 3}
      propertyPath: m_Mesh
      value: 
      objectReference: {fileID: 0}
    - target: {fileID: 8237119810905634727, guid: 51c3acbd0266db343a9ac1856da27054, type: 3}
      propertyPath: m_Mesh
      value: 
      objectReference: {fileID: 0}
    - target: {fileID: 8237119810999758116, guid: 51c3acbd0266db343a9ac1856da27054, type: 3}
      propertyPath: m_Mesh
      value: 
      objectReference: {fileID: 0}
    - target: {fileID: 8246116752012798741, guid: 51c3acbd0266db343a9ac1856da27054, type: 3}
      propertyPath: m_Mesh
      value: 
      objectReference: {fileID: 0}
    - target: {fileID: 8246116752014804458, guid: 51c3acbd0266db343a9ac1856da27054, type: 3}
      propertyPath: m_Mesh
      value: 
      objectReference: {fileID: 0}
    - target: {fileID: 8246116752114529237, guid: 51c3acbd0266db343a9ac1856da27054, type: 3}
      propertyPath: m_Mesh
      value: 
      objectReference: {fileID: 0}
    - target: {fileID: 8246116752235991593, guid: 51c3acbd0266db343a9ac1856da27054, type: 3}
      propertyPath: m_Mesh
      value: 
      objectReference: {fileID: 0}
    - target: {fileID: 8246116752249123266, guid: 51c3acbd0266db343a9ac1856da27054, type: 3}
      propertyPath: m_Mesh
      value: 
      objectReference: {fileID: 0}
    - target: {fileID: 8246116752293624875, guid: 51c3acbd0266db343a9ac1856da27054, type: 3}
      propertyPath: m_Mesh
      value: 
      objectReference: {fileID: 0}
    - target: {fileID: 8246116752312055084, guid: 51c3acbd0266db343a9ac1856da27054, type: 3}
      propertyPath: m_Mesh
      value: 
      objectReference: {fileID: 0}
    - target: {fileID: 8246116752367753743, guid: 51c3acbd0266db343a9ac1856da27054, type: 3}
      propertyPath: m_Mesh
      value: 
      objectReference: {fileID: 0}
    - target: {fileID: 8246116752379570025, guid: 51c3acbd0266db343a9ac1856da27054, type: 3}
      propertyPath: m_Mesh
      value: 
      objectReference: {fileID: 0}
    - target: {fileID: 8246116752387312170, guid: 51c3acbd0266db343a9ac1856da27054, type: 3}
      propertyPath: m_Mesh
      value: 
      objectReference: {fileID: 0}
    - target: {fileID: 8246116752388702996, guid: 51c3acbd0266db343a9ac1856da27054, type: 3}
      propertyPath: m_Mesh
      value: 
      objectReference: {fileID: 0}
    - target: {fileID: 8246116752401971392, guid: 51c3acbd0266db343a9ac1856da27054, type: 3}
      propertyPath: m_Mesh
      value: 
      objectReference: {fileID: 0}
    - target: {fileID: 8246116752463124339, guid: 51c3acbd0266db343a9ac1856da27054, type: 3}
      propertyPath: m_Mesh
      value: 
      objectReference: {fileID: 0}
    - target: {fileID: 8246116752500085287, guid: 51c3acbd0266db343a9ac1856da27054, type: 3}
      propertyPath: m_Mesh
      value: 
      objectReference: {fileID: 0}
    - target: {fileID: 8246116752507154241, guid: 51c3acbd0266db343a9ac1856da27054, type: 3}
      propertyPath: m_Mesh
      value: 
      objectReference: {fileID: 0}
    - target: {fileID: 8246116752515973634, guid: 51c3acbd0266db343a9ac1856da27054, type: 3}
      propertyPath: m_Mesh
      value: 
      objectReference: {fileID: 0}
    - target: {fileID: 8246116752529525564, guid: 51c3acbd0266db343a9ac1856da27054, type: 3}
      propertyPath: m_Mesh
      value: 
      objectReference: {fileID: 0}
    - target: {fileID: 8246116752534827240, guid: 51c3acbd0266db343a9ac1856da27054, type: 3}
      propertyPath: m_Mesh
      value: 
      objectReference: {fileID: 0}
    - target: {fileID: 8246116752591363931, guid: 51c3acbd0266db343a9ac1856da27054, type: 3}
      propertyPath: m_Mesh
      value: 
      objectReference: {fileID: 0}
    - target: {fileID: 8246116752631650817, guid: 51c3acbd0266db343a9ac1856da27054, type: 3}
      propertyPath: m_Mesh
      value: 
      objectReference: {fileID: 0}
    - target: {fileID: 8246116752654186986, guid: 51c3acbd0266db343a9ac1856da27054, type: 3}
      propertyPath: m_Mesh
      value: 
      objectReference: {fileID: 0}
    - target: {fileID: 8246116752693834755, guid: 51c3acbd0266db343a9ac1856da27054, type: 3}
      propertyPath: m_Mesh
      value: 
      objectReference: {fileID: 0}
    - target: {fileID: 8246116752708631812, guid: 51c3acbd0266db343a9ac1856da27054, type: 3}
      propertyPath: m_Mesh
      value: 
      objectReference: {fileID: 0}
    - target: {fileID: 8246116752786881533, guid: 51c3acbd0266db343a9ac1856da27054, type: 3}
      propertyPath: m_Mesh
      value: 
      objectReference: {fileID: 0}
    - target: {fileID: 8246116752955592130, guid: 51c3acbd0266db343a9ac1856da27054, type: 3}
      propertyPath: m_Mesh
      value: 
      objectReference: {fileID: 0}
    - target: {fileID: 8246116752957875005, guid: 51c3acbd0266db343a9ac1856da27054, type: 3}
      propertyPath: m_Mesh
      value: 
      objectReference: {fileID: 0}
    - target: {fileID: 8246116753026255187, guid: 51c3acbd0266db343a9ac1856da27054, type: 3}
      propertyPath: m_Mesh
      value: 
      objectReference: {fileID: 0}
    - target: {fileID: 8246116753030548763, guid: 51c3acbd0266db343a9ac1856da27054, type: 3}
      propertyPath: m_Mesh
      value: 
      objectReference: {fileID: 0}
    - target: {fileID: 8246116753039272334, guid: 51c3acbd0266db343a9ac1856da27054, type: 3}
      propertyPath: m_Mesh
      value: 
      objectReference: {fileID: 0}
    - target: {fileID: 8246116753155437590, guid: 51c3acbd0266db343a9ac1856da27054, type: 3}
      propertyPath: m_Mesh
      value: 
      objectReference: {fileID: 0}
    - target: {fileID: 8246116753199220055, guid: 51c3acbd0266db343a9ac1856da27054, type: 3}
      propertyPath: m_Mesh
      value: 
      objectReference: {fileID: 0}
    - target: {fileID: 8246116753232803056, guid: 51c3acbd0266db343a9ac1856da27054, type: 3}
      propertyPath: m_Mesh
      value: 
      objectReference: {fileID: 0}
    - target: {fileID: 8246116753256646561, guid: 51c3acbd0266db343a9ac1856da27054, type: 3}
      propertyPath: m_Mesh
      value: 
      objectReference: {fileID: 0}
    - target: {fileID: 8246116753358735861, guid: 51c3acbd0266db343a9ac1856da27054, type: 3}
      propertyPath: m_Mesh
      value: 
      objectReference: {fileID: 0}
    - target: {fileID: 8246116753392942473, guid: 51c3acbd0266db343a9ac1856da27054, type: 3}
      propertyPath: m_Mesh
      value: 
      objectReference: {fileID: 0}
    - target: {fileID: 8246116753464136172, guid: 51c3acbd0266db343a9ac1856da27054, type: 3}
      propertyPath: m_Mesh
      value: 
      objectReference: {fileID: 0}
    - target: {fileID: 8246116753543836476, guid: 51c3acbd0266db343a9ac1856da27054, type: 3}
      propertyPath: m_Mesh
      value: 
      objectReference: {fileID: 0}
    - target: {fileID: 8246116753601321412, guid: 51c3acbd0266db343a9ac1856da27054, type: 3}
      propertyPath: m_Mesh
      value: 
      objectReference: {fileID: 0}
    - target: {fileID: 8246116753672633108, guid: 51c3acbd0266db343a9ac1856da27054, type: 3}
      propertyPath: m_Mesh
      value: 
      objectReference: {fileID: 0}
    - target: {fileID: 8246116753759076829, guid: 51c3acbd0266db343a9ac1856da27054, type: 3}
      propertyPath: m_Mesh
      value: 
      objectReference: {fileID: 0}
    - target: {fileID: 8246116753790170529, guid: 51c3acbd0266db343a9ac1856da27054, type: 3}
      propertyPath: m_Mesh
      value: 
      objectReference: {fileID: 0}
    - target: {fileID: 8246116753828445246, guid: 51c3acbd0266db343a9ac1856da27054, type: 3}
      propertyPath: m_Mesh
      value: 
      objectReference: {fileID: 0}
    - target: {fileID: 8246116753868524927, guid: 51c3acbd0266db343a9ac1856da27054, type: 3}
      propertyPath: m_Mesh
      value: 
      objectReference: {fileID: 0}
    - target: {fileID: 8246116753902140632, guid: 51c3acbd0266db343a9ac1856da27054, type: 3}
      propertyPath: m_Mesh
      value: 
      objectReference: {fileID: 0}
    - target: {fileID: 8246116753926508425, guid: 51c3acbd0266db343a9ac1856da27054, type: 3}
      propertyPath: m_Mesh
      value: 
      objectReference: {fileID: 0}
    - target: {fileID: 8246116753967793459, guid: 51c3acbd0266db343a9ac1856da27054, type: 3}
      propertyPath: m_Mesh
      value: 
      objectReference: {fileID: 0}
    - target: {fileID: 8246116753972281723, guid: 51c3acbd0266db343a9ac1856da27054, type: 3}
      propertyPath: m_Mesh
      value: 
      objectReference: {fileID: 0}
    - target: {fileID: 8246116753975861670, guid: 51c3acbd0266db343a9ac1856da27054, type: 3}
      propertyPath: m_Mesh
      value: 
      objectReference: {fileID: 0}
    - target: {fileID: 8450132341898436790, guid: 51c3acbd0266db343a9ac1856da27054, type: 3}
      propertyPath: m_Size.z
      value: 2.7918942
      objectReference: {fileID: 0}
    - target: {fileID: 8450132341898436790, guid: 51c3acbd0266db343a9ac1856da27054, type: 3}
      propertyPath: m_Center.x
      value: -0.00000023610954
      objectReference: {fileID: 0}
    - target: {fileID: 8450132341898436790, guid: 51c3acbd0266db343a9ac1856da27054, type: 3}
      propertyPath: m_Center.z
      value: 0.8959493
      objectReference: {fileID: 0}
    - target: {fileID: 8639516411580904949, guid: 51c3acbd0266db343a9ac1856da27054, type: 3}
      propertyPath: m_Size.z
      value: 2.993828
      objectReference: {fileID: 0}
    - target: {fileID: 8639516411580904949, guid: 51c3acbd0266db343a9ac1856da27054, type: 3}
      propertyPath: m_Center.x
      value: -0.000000024945518
      objectReference: {fileID: 0}
    - target: {fileID: 8639516411580904949, guid: 51c3acbd0266db343a9ac1856da27054, type: 3}
      propertyPath: m_Center.y
      value: 0.29432163
      objectReference: {fileID: 0}
    - target: {fileID: 8639516411580904949, guid: 51c3acbd0266db343a9ac1856da27054, type: 3}
      propertyPath: m_Center.z
      value: 0.9969126
      objectReference: {fileID: 0}
    - target: {fileID: 8899979035336824766, guid: 51c3acbd0266db343a9ac1856da27054, type: 3}
      propertyPath: m_Mesh
      value: 
      objectReference: {fileID: 0}
    - target: {fileID: 8899979035409976637, guid: 51c3acbd0266db343a9ac1856da27054, type: 3}
      propertyPath: m_Mesh
      value: 
      objectReference: {fileID: 0}
    - target: {fileID: 8899979035818607893, guid: 51c3acbd0266db343a9ac1856da27054, type: 3}
      propertyPath: m_Mesh
      value: 
      objectReference: {fileID: 0}
    - target: {fileID: 8899979036009275286, guid: 51c3acbd0266db343a9ac1856da27054, type: 3}
      propertyPath: m_Mesh
      value: 
      objectReference: {fileID: 0}
    - target: {fileID: 9106142282189967329, guid: 51c3acbd0266db343a9ac1856da27054, type: 3}
      propertyPath: m_Mesh
      value: 
      objectReference: {fileID: 0}
    - target: {fileID: 9106142282586576226, guid: 51c3acbd0266db343a9ac1856da27054, type: 3}
      propertyPath: m_Mesh
      value: 
      objectReference: {fileID: 0}
    - target: {fileID: 9106142282722155850, guid: 51c3acbd0266db343a9ac1856da27054, type: 3}
      propertyPath: m_Mesh
      value: 
      objectReference: {fileID: 0}
    - target: {fileID: 9106142283135469513, guid: 51c3acbd0266db343a9ac1856da27054, type: 3}
      propertyPath: m_Mesh
      value: 
      objectReference: {fileID: 0}
    - target: {fileID: 9138612485469074379, guid: 51c3acbd0266db343a9ac1856da27054, type: 3}
      propertyPath: m_Mesh
      value: 
      objectReference: {fileID: 0}
    - target: {fileID: 9138612485601377251, guid: 51c3acbd0266db343a9ac1856da27054, type: 3}
      propertyPath: m_Mesh
      value: 
      objectReference: {fileID: 0}
    - target: {fileID: 9149715558794184084, guid: 51c3acbd0266db343a9ac1856da27054, type: 3}
      propertyPath: m_Size.z
      value: 2.5556736
      objectReference: {fileID: 0}
    - target: {fileID: 9149715558794184084, guid: 51c3acbd0266db343a9ac1856da27054, type: 3}
      propertyPath: m_Center.x
      value: -0.00000008753354
      objectReference: {fileID: 0}
    - target: {fileID: 9149715558794184084, guid: 51c3acbd0266db343a9ac1856da27054, type: 3}
      propertyPath: m_Center.y
      value: 0.033590604
      objectReference: {fileID: 0}
    - target: {fileID: 9149715558794184084, guid: 51c3acbd0266db343a9ac1856da27054, type: 3}
      propertyPath: m_Center.z
      value: 0.77783686
      objectReference: {fileID: 0}
    - target: {fileID: 9149715558967422263, guid: 51c3acbd0266db343a9ac1856da27054, type: 3}
      propertyPath: m_Size.z
      value: 2.804477
      objectReference: {fileID: 0}
    - target: {fileID: 9149715558967422263, guid: 51c3acbd0266db343a9ac1856da27054, type: 3}
      propertyPath: m_Center.x
      value: -0.000000109690525
      objectReference: {fileID: 0}
    - target: {fileID: 9149715558967422263, guid: 51c3acbd0266db343a9ac1856da27054, type: 3}
      propertyPath: m_Center.y
      value: 0.033590604
      objectReference: {fileID: 0}
    - target: {fileID: 9149715558967422263, guid: 51c3acbd0266db343a9ac1856da27054, type: 3}
      propertyPath: m_Center.z
      value: 0.9022391
      objectReference: {fileID: 0}
    - target: {fileID: 9177038613859821126, guid: 51c3acbd0266db343a9ac1856da27054, type: 3}
      propertyPath: m_Mesh
      value: 
      objectReference: {fileID: 0}
    - target: {fileID: 9177038614532796014, guid: 51c3acbd0266db343a9ac1856da27054, type: 3}
      propertyPath: m_Mesh
      value: 
      objectReference: {fileID: 0}
    m_RemovedComponents: []
  m_SourcePrefab: {fileID: 100100000, guid: 51c3acbd0266db343a9ac1856da27054, type: 3}
--- !u!4 &4456694109311888218 stripped
Transform:
  m_CorrespondingSourceObject: {fileID: 1478734773300011197, guid: 51c3acbd0266db343a9ac1856da27054, type: 3}
  m_PrefabInstance: {fileID: 2980502102864612327}
  m_PrefabAsset: {fileID: 0}
--- !u!1001 &8179150511192666551
PrefabInstance:
  m_ObjectHideFlags: 0
  serializedVersion: 2
  m_Modification:
    m_TransformParent: {fileID: 4456694109311888218}
    m_Modifications:
    - target: {fileID: 6403820502335374880, guid: b2e133b16f9824117abacec191613151, type: 3}
      propertyPath: m_Name
      value: checkpoint 2.0
      objectReference: {fileID: 0}
    - target: {fileID: 6403820502335374895, guid: b2e133b16f9824117abacec191613151, type: 3}
      propertyPath: m_RootOrder
      value: 8
      objectReference: {fileID: 0}
    - target: {fileID: 6403820502335374895, guid: b2e133b16f9824117abacec191613151, type: 3}
      propertyPath: m_LocalPosition.x
      value: 0.5
      objectReference: {fileID: 0}
    - target: {fileID: 6403820502335374895, guid: b2e133b16f9824117abacec191613151, type: 3}
      propertyPath: m_LocalPosition.y
      value: 18.288954
      objectReference: {fileID: 0}
    - target: {fileID: 6403820502335374895, guid: b2e133b16f9824117abacec191613151, type: 3}
      propertyPath: m_LocalPosition.z
      value: 187.77267
      objectReference: {fileID: 0}
    - target: {fileID: 6403820502335374895, guid: b2e133b16f9824117abacec191613151, type: 3}
      propertyPath: m_LocalRotation.w
      value: 1
      objectReference: {fileID: 0}
    - target: {fileID: 6403820502335374895, guid: b2e133b16f9824117abacec191613151, type: 3}
      propertyPath: m_LocalRotation.x
      value: -0
      objectReference: {fileID: 0}
    - target: {fileID: 6403820502335374895, guid: b2e133b16f9824117abacec191613151, type: 3}
      propertyPath: m_LocalRotation.y
      value: -0
      objectReference: {fileID: 0}
    - target: {fileID: 6403820502335374895, guid: b2e133b16f9824117abacec191613151, type: 3}
      propertyPath: m_LocalRotation.z
      value: -0
      objectReference: {fileID: 0}
    - target: {fileID: 6403820502335374895, guid: b2e133b16f9824117abacec191613151, type: 3}
      propertyPath: m_LocalEulerAnglesHint.x
      value: 0
      objectReference: {fileID: 0}
    - target: {fileID: 6403820502335374895, guid: b2e133b16f9824117abacec191613151, type: 3}
      propertyPath: m_LocalEulerAnglesHint.y
      value: 0
      objectReference: {fileID: 0}
    - target: {fileID: 6403820502335374895, guid: b2e133b16f9824117abacec191613151, type: 3}
      propertyPath: m_LocalEulerAnglesHint.z
      value: 0
      objectReference: {fileID: 0}
    m_RemovedComponents: []
  m_SourcePrefab: {fileID: 100100000, guid: b2e133b16f9824117abacec191613151, type: 3}
