%YAML 1.1
%TAG !u! tag:unity3d.com,2011:
--- !u!1 &1499097880080140042
GameObject:
  m_ObjectHideFlags: 0
  m_CorrespondingSourceObject: {fileID: 0}
  m_PrefabInstance: {fileID: 0}
  m_PrefabAsset: {fileID: 0}
  serializedVersion: 6
  m_Component:
  - component: {fileID: 2492324908938376473}
  m_Layer: 0
  m_Name: Girl
  m_TagString: Untagged
  m_Icon: {fileID: 0}
  m_NavMeshLayer: 0
  m_StaticEditorFlags: 0
  m_IsActive: 1
--- !u!4 &2492324908938376473
Transform:
  m_ObjectHideFlags: 0
  m_CorrespondingSourceObject: {fileID: 0}
  m_PrefabInstance: {fileID: 0}
  m_PrefabAsset: {fileID: 0}
  m_GameObject: {fileID: 1499097880080140042}
  m_LocalRotation: {x: 0, y: 0, z: 0, w: 1}
  m_LocalPosition: {x: 0, y: 0, z: 0}
  m_LocalScale: {x: 1, y: 1, z: 1}
  m_Children:
  - {fileID: 6699580035630499758}
  m_Father: {fileID: 0}
  m_RootOrder: 0
  m_LocalEulerAnglesHint: {x: 0, y: 0, z: 0}
--- !u!1001 &2840023415865839449
PrefabInstance:
  m_ObjectHideFlags: 0
  serializedVersion: 2
  m_Modification:
    m_TransformParent: {fileID: 2492324908938376473}
    m_Modifications:
    - target: {fileID: 8298184955753229139, guid: 5a17bb6be93714b2988ffa29d4c9c539, type: 3}
      propertyPath: m_Name
      value: Girl
      objectReference: {fileID: 0}
    - target: {fileID: 8903751376832006391, guid: 5a17bb6be93714b2988ffa29d4c9c539, type: 3}
      propertyPath: m_RootOrder
      value: 0
      objectReference: {fileID: 0}
    - target: {fileID: 8903751376832006391, guid: 5a17bb6be93714b2988ffa29d4c9c539, type: 3}
      propertyPath: m_LocalPosition.x
      value: -0
      objectReference: {fileID: 0}
    - target: {fileID: 8903751376832006391, guid: 5a17bb6be93714b2988ffa29d4c9c539, type: 3}
      propertyPath: m_LocalPosition.y
      value: 0
      objectReference: {fileID: 0}
    - target: {fileID: 8903751376832006391, guid: 5a17bb6be93714b2988ffa29d4c9c539, type: 3}
      propertyPath: m_LocalPosition.z
      value: 0
      objectReference: {fileID: 0}
    - target: {fileID: 8903751376832006391, guid: 5a17bb6be93714b2988ffa29d4c9c539, type: 3}
      propertyPath: m_LocalRotation.w
      value: 1
      objectReference: {fileID: 0}
    - target: {fileID: 8903751376832006391, guid: 5a17bb6be93714b2988ffa29d4c9c539, type: 3}
      propertyPath: m_LocalRotation.x
      value: 0
      objectReference: {fileID: 0}
    - target: {fileID: 8903751376832006391, guid: 5a17bb6be93714b2988ffa29d4c9c539, type: 3}
      propertyPath: m_LocalRotation.y
      value: -0
      objectReference: {fileID: 0}
    - target: {fileID: 8903751376832006391, guid: 5a17bb6be93714b2988ffa29d4c9c539, type: 3}
      propertyPath: m_LocalRotation.z
      value: -0
      objectReference: {fileID: 0}
    - target: {fileID: 8903751376832006391, guid: 5a17bb6be93714b2988ffa29d4c9c539, type: 3}
      propertyPath: m_LocalEulerAnglesHint.x
      value: 0
      objectReference: {fileID: 0}
    - target: {fileID: 8903751376832006391, guid: 5a17bb6be93714b2988ffa29d4c9c539, type: 3}
      propertyPath: m_LocalEulerAnglesHint.y
      value: 0
      objectReference: {fileID: 0}
    - target: {fileID: 8903751376832006391, guid: 5a17bb6be93714b2988ffa29d4c9c539, type: 3}
      propertyPath: m_LocalEulerAnglesHint.z
      value: 0
      objectReference: {fileID: 0}
    m_RemovedComponents: []
  m_SourcePrefab: {fileID: 100100000, guid: 5a17bb6be93714b2988ffa29d4c9c539, type: 3}
--- !u!4 &6699580035630499758 stripped
Transform:
  m_CorrespondingSourceObject: {fileID: 8903751376832006391, guid: 5a17bb6be93714b2988ffa29d4c9c539, type: 3}
  m_PrefabInstance: {fileID: 2840023415865839449}
  m_PrefabAsset: {fileID: 0}
